module gitlab.com/vibaiher/green_bot

// +heroku goVersion 1.13
go 1.13

require (
	github.com/go-telegram-bot-api/telegram-bot-api v4.6.4+incompatible
	github.com/technoweenie/multipartstreamer v1.0.1 // indirect
)
